Gene Ontology (GO) Term Analysis
…
ℹ Use `spec()` to retrieve the full column specification for this data.
ℹ Specify the column types or set `show_col_types = FALSE` to quiet this message.

Create a Differentially Expressed (DE) Gene List

We need a list of differentially expressed genes to test for over (or under) enrichment of functional GO terms. Here, we choose genes with significantly (FDR<0.05) higher expression (log2 fold change (logFC) greater than 1) in the EtOH treated wild-type cells unstressed wild-type control cells (positive values in the logFC column of WT EtOH response).

Code

# subset data to just genes with significant fdr & log2FC>1
msn24_EtOH %>%
  filter(logFC_YPS606_WT_etoh_response > 1 & 
         fdr_YPS606_WT_EtOH_response < 0.05)

# A tibble: 1,168 × 18
   gene_id common_name annotation  logFC_YPS606_WT_etoh…¹ pvalue_YPS606_WT_eto…²
   <chr>   <chr>       <chr>                        <dbl>                  <dbl>
 1 YMR105C PGM2        Phosphoglu…                   7.60               9.40e-38
 2 YML100W TSL1        Large subu…                   7.76               1.04e-35
 3 YER053C PIC2        Mitochondr…                   6.69               3.03e-39
 4 YKL035W UGP1        UDP-glucos…                   4.42               7.55e-34
 5 YLR258W GSY2        Glycogen s…                   7.52               2.20e-40
 6 YMR196W YMR196W     Putative p…                   7.33               9.30e-37
 7 YFR053C HXK1        Hexokinase…                   9.08               6.36e-38
 8 YDR001C NTH1        Neutral tr…                   3.64               1.69e-34
 9 YBR126C TPS1        Synthase s…                   5.33               4.03e-36
10 YDR516C EMI2        Hexokinase…                   7.00               3.65e-38
# ℹ 1,158 more rows
# ℹ abbreviated names: ¹​logFC_YPS606_WT_etoh_response,
#   ²​pvalue_YPS606_WT_etoh_response
# ℹ 13 more variables: fdr_YPS606_WT_EtOH_response <dbl>,
#   logFC_YPS606_msn24dd_EtOH_response <dbl>,
#   pvalue_YPS606_msn24dd_EtOH_response <dbl>,
#   fdr_YPS606_msn24dd_EtOH_response <dbl>, …
…
